{
  "name": "np-length",
  "dependencies": [
  	"units/unit-np-length"
  ],
  "entries": [
    {
      "value": "@sys.number:amount@unit-np-length:unit",
      "synonyms": [
        "@sys.number:amount@unit-np-length:unit"
      ]
    }
  ]
}