{
  "name": "np-price",
  "dependencies": [
    "units/unit-np-currency",
    "entities/np-number"
  ],
  "isEnum": true,
  "entries": [
    {
      "value": "@np-number:amount @unit-np-currency:unit",
      "synonyms": [
        "@np-number:amount @unit-np-currency:unit"
      ]
    },
    {
      "value": "@unit-np-currency:unit @np-number:amount",
      "synonyms": [
        "@unit-np-currency:unit @np-number:amount"
      ]
    }
  ]
}