{
  "name": "lib-np-connect-strings",
  "dependencies": [],
  "isEnum": true,
  "entries": [
    {
      "value": "en",
      "synonyms": [
        "en"
      ]
    },
    {
      "value": "of",
      "synonyms": [
        "of"
      ]
    },
    {
      "value": ",",
      "synonyms": [
        ","
      ]
    }
  ]
}