{
  "name": "lib-np-carmakes",
  "dependencies": [],
  "isEnum": false,
  "entries": [
    {
      "value": "Abarth",
      "synonyms": [
        "Abarth"
      ]
    },
    {
      "value": "Alfa Romeo",
      "synonyms": [
        "Alfa Romeo",
        "Alfa"
      ]
    },
    {
      "value": "Aston Martin",
      "synonyms": [
        "Aston Martin",
        "Aston"
      ]
    },
    {
      "value": "Audi",
      "synonyms": [
        "Audi"
      ]
    },
    {
      "value": "Alpine",
      "synonyms": [
        "Alpine"
      ]
    },
    {
      "value": "Bentley",
      "synonyms": [
        "Bentley"
      ]
    },
    {
      "value": "BMW",
      "synonyms": [
        "BMW",
        "Beamer"
      ]
    },
    {
      "value": "Bugatti",
      "synonyms": [
        "Bugatti"
      ]
    },
    {
      "value": "Cadillac",
      "synonyms": [
        "Cadillac"
      ]
    },
    {
      "value": "Chevrolet",
      "synonyms": [
        "Chevrolet",
        "Chevy"
      ]
    },
    {
      "value": "Chrysler",
      "synonyms": [
        "Chrysler"
      ]
    },
    {
      "value": "Citroën",
      "synonyms": [
        "Citroën"
      ]
    },
    {
      "value": "Dacia",
      "synonyms": [
        "Dacia"
      ]
    },
    {
      "value": "Daewoo",
      "synonyms": [
        "Daewoo"
      ]
    },
    {
      "value": "Daihatsu",
      "synonyms": [
        "Daihatsu"
      ]
    },
    {
      "value": "Dodge",
      "synonyms": [
        "Dodge"
      ]
    },
    {
      "value": "Donkervoort",
      "synonyms": [
        "Donkervoort"
      ]
    },
    {
      "value": "Datsun",
      "synonyms": [
        "Datsun"
      ]
    },
    {
      "value": "DS",
      "synonyms": [
        "DS"
      ]
    },
    {
      "value": "Ferrari",
      "synonyms": [
        "Ferrari"
      ]
    },
    {
      "value": "Fiat",
      "synonyms": [
        "Fiat"
      ]
    },
    {
      "value": "Ford",
      "synonyms": [
        "Ford"
      ]
    },
    {
      "value": "Fisker",
      "synonyms": [
        "Fisker"
      ]
    },
    {
      "value": "Honda",
      "synonyms": [
        "Honda"
      ]
    },
    {
      "value": "Hummer",
      "synonyms": [
        "Hummer"
      ]
    },
    {
      "value": "Hyundai",
      "synonyms": [
        "Hyundai"
      ]
    },
    {
      "value": "Infiniti",
      "synonyms": [
        "Infiniti"
      ]
    },
    {
      "value": "Jaguar",
      "synonyms": [
        "Jaguar"
      ]
    },
    {
      "value": "Jeep",
      "synonyms": [
        "Jeep"
      ]
    },
    {
      "value": "Kia",
      "synonyms": [
        "Kia"
      ]
    },
    {
      "value": "KTM",
      "synonyms": [
        "KTM"
      ]
    },
    {
      "value": "Lada",
      "synonyms": [
        "Lada"
      ]
    },
    {
      "value": "Lamborghini",
      "synonyms": [
        "Lamborghini",
        "Lambo"
      ]
    },
    {
      "value": "Lancia",
      "synonyms": [
        "Lancia"
      ]
    },
    {
      "value": "Land Rover",
      "synonyms": [
        "Land Rover"
      ]
    },
    {
      "value": "Landwind",
      "synonyms": [
        "Landwind"
      ]
    },
    {
      "value": "Lexus",
      "synonyms": [
        "Lexus"
      ]
    },
    {
      "value": "Lotus",
      "synonyms": [
        "Lotus"
      ]
    },
    {
      "value": "Maserati",
      "synonyms": [
        "Maserati"
      ]
    },
    {
      "value": "Mazda",
      "synonyms": [
        "Mazda"
      ]
    },
    {
      "value": "Mercedes-Benz",
      "synonyms": [
        "Mercedes-Benz",
        "Benz",
        "Merc"
      ]
    },
    {
      "value": "MG",
      "synonyms": [
        "MG"
      ]
    },
    {
      "value": "Mini",
      "synonyms": [
        "Mini"
      ]
    },
    {
      "value": "Mitsubishi",
      "synonyms": [
        "Mitsubishi"
      ]
    },
    {
      "value": "McLaren",
      "synonyms": [
        "McLaren"
      ]
    },
    {
      "value": "Nissan",
      "synonyms": [
        "Nissan"
      ]
    },
    {
      "value": "Opel",
      "synonyms": [
        "Opel",
        "Vauxhall",
        "Holden"
      ]
    },
    {
      "value": "Peugeot",
      "synonyms": [
        "Peugeot"
      ]
    },
    {
      "value": "Porsche",
      "synonyms": [
        "Porsche"
      ]
    },
    {
      "value": "Qoros",
      "synonyms": [
        "Qoros"
      ]
    },
    {
      "value": "Renault",
      "synonyms": [
        "Renault"
      ]
    },
    {
      "value": "Rolls-Royce",
      "synonyms": [
        "Rolls-Royce",
        "Rolls"
      ]
    },
    {
      "value": "Rover",
      "synonyms": [
        "Rover"
      ]
    },
    {
      "value": "Saab",
      "synonyms": [
        "Saab"
      ]
    },
    {
      "value": "Seat",
      "synonyms": [
        "Seat"
      ]
    },
    {
      "value": "Skoda",
      "synonyms": [
        "Skoda"
      ]
    },
    {
      "value": "Smart",
      "synonyms": [
        "Smart"
      ]
    },
    {
      "value": "SsangYong",
      "synonyms": [
        "SsangYong"
      ]
    },
    {
      "value": "Subaru",
      "synonyms": [
        "Subaru"
      ]
    },
    {
      "value": "Suzuki",
      "synonyms": [
        "Suzuki"
      ]
    },
    {
      "value": "Spyker",
      "synonyms": [
        "Spyker"
      ]
    },
    {
      "value": "Toyota",
      "synonyms": [
        "Toyota"
      ]
    },
    {
      "value": "Tesla",
      "synonyms": [
        "Tesla"
      ]
    },
    {
      "value": "Think",
      "synonyms": [
        "Think"
      ]
    },
    {
      "value": "Volkswagen",
      "synonyms": [
        "Volkswagen",
        "VW"
      ]
    },
    {
      "value": "Volvo",
      "synonyms": [
        "Volvo"
      ]
    },
    {
      "value": "Wiesmann",
      "synonyms": [
        "Wiesmann"
      ]
    }
  ]
}