{
  "name": "unit-np-temperature",
  "dependencies": [],
  "isEnum": false,
  "entries": [
    {
      "value": "EUR",
      "synonyms": [
        "EUR",
        "€",
        "euro"
      ]
    },
    {
      "value": "USD",
      "synonyms": [
        "USD",
        "$",
        "dollar",
        "us dollar"
      ]
    },
    {
      "value": "GBP",
      "synonyms": [
        "GBP",
        "pound",
        "pond"
      ]
    },
    {
      "value": "unknown",
      "synonyms": [
        "*"
      ]
    }
  ]
}