{
  "name": "unit-np-time",
  "dependencies": [],
  "isEnum": false,
  "entries": [
    {
      "value": "sec",
      "synonyms": [
        "sec",
        "seconde",
        "seconden"
      ]
    },
    {
      "value": "min",
      "synonyms": [
        "min",
        "minuut",
        "minuten"
      ]
    },
    {
      "value": "hour",
      "synonyms": [
        "uur",
        "uren"
      ]
    },
    {
      "value": "day",
      "synonyms": [
        "dag",
        "dagen"
      ]
    },
    {
      "value": "week",
      "synonyms": [
        "week",
        "weken"
      ]
    },
    {
      "value": "month",
      "synonyms": [
        "maand",
        "maanden"
      ]
    },
    {
      "value": "quarter",
      "synonyms": [
        "kwartaal",
        "kwartalen"
      ]
    },
    {
      "value": "year",
      "synonyms": [
        "jaar",
        "jaren"
      ]
    },
    {
      "value": "decade",
      "synonyms": [
        "decennium",
        "decennia"
      ]
    },
    {
      "value": "century",
      "synonyms": [
        "eeuw",
        "eeuwen"
      ]
    },
    {
      "value": "millenium",
      "synonyms": [
        "millenium",
        "millenia"
      ]
    },
    {
      "value": "unknown",
      "synonyms": [
        "*"
      ]
    }
  ]
}